<?xml version="1.0" encoding="UTF-8" standalone="no"?>
<!-- Created with Inkscape (http://www.inkscape.org/) -->
<svg
   xmlns:dc="http://purl.org/dc/elements/1.1/"
   xmlns:cc="http://creativecommons.org/ns#"
   xmlns:rdf="http://www.w3.org/1999/02/22-rdf-syntax-ns#"
   xmlns:svg="http://www.w3.org/2000/svg"
   xmlns="http://www.w3.org/2000/svg"
   xmlns:sodipodi="http://sodipodi.sourceforge.net/DTD/sodipodi-0.dtd"
   xmlns:inkscape="http://www.inkscape.org/namespaces/inkscape"
   width="1246.5079"
   height="240.57637"
   id="svg2"
   sodipodi:version="0.32"
   inkscape:version="0.46"
   sodipodi:docname="fpset_vs_RR.svg"
   inkscape:output_extension="org.inkscape.output.svg.inkscape"
   inkscape:export-filename="D:\Baudin\ProjetScilabNisp\svn-opus\trunk\doc\Documents\Talks\JourneeIncerteo.17.09.2009.MB\design-toolbox.png"
   inkscape:export-xdpi="423"
   inkscape:export-ydpi="423"
   version="1.0">
  <defs
     id="defs4">
    <marker
       inkscape:stockid="Arrow1Lend"
       orient="auto"
       refY="0"
       refX="0"
       id="Arrow1Lend"
       style="overflow:visible">
      <path
         id="path3314"
         d="M 0,0 L 5,-5 L -12.5,0 L 5,5 L 0,0 z"
         style="fill-rule:evenodd;stroke:#000000;stroke-width:1pt;marker-start:none"
         transform="matrix(-0.8,0,0,-0.8,-10,0)" />
    </marker>
    <inkscape:perspective
       sodipodi:type="inkscape:persp3d"
       inkscape:vp_x="0 : 526.18109 : 1"
       inkscape:vp_y="0 : 1000 : 0"
       inkscape:vp_z="744.09448 : 526.18109 : 1"
       inkscape:persp3d-origin="372.04724 : 350.78739 : 1"
       id="perspective10" />
    <inkscape:perspective
       id="perspective2484"
       inkscape:persp3d-origin="372.04724 : 350.78739 : 1"
       inkscape:vp_z="744.09448 : 526.18109 : 1"
       inkscape:vp_y="0 : 1000 : 0"
       inkscape:vp_x="0 : 526.18109 : 1"
       sodipodi:type="inkscape:persp3d" />
  </defs>
  <sodipodi:namedview
     id="base"
     pagecolor="#ffffff"
     bordercolor="#666666"
     borderopacity="1.0"
     inkscape:pageopacity="0.0"
     inkscape:pageshadow="2"
     inkscape:zoom="0.49497475"
     inkscape:cx="493.59386"
     inkscape:cy="-191.90542"
     inkscape:document-units="px"
     inkscape:current-layer="layer1"
     showgrid="true"
     inkscape:window-width="1226"
     inkscape:window-height="949"
     inkscape:window-x="1866"
     inkscape:window-y="56">
    <inkscape:grid
       type="xygrid"
       id="grid3767"
       visible="true"
       enabled="true" />
  </sodipodi:namedview>
  <metadata
     id="metadata7">
    <rdf:RDF>
      <cc:Work
         rdf:about="">
        <dc:format>image/svg+xml</dc:format>
        <dc:type
           rdf:resource="http://purl.org/dc/dcmitype/StillImage" />
      </cc:Work>
    </rdf:RDF>
  </metadata>
  <g
     inkscape:label="Calque 1"
     inkscape:groupmode="layer"
     id="layer1"
     transform="translate(139.74151,290.90668)">
    <path
       style="fill:none;fill-rule:evenodd;stroke:#000000;stroke-width:2;stroke-linecap:butt;stroke-linejoin:miter;stroke-miterlimit:4;stroke-dasharray:none;stroke-opacity:1"
       d="M -130.88292,-164.31234 L 1034.8313,-164.31234"
       id="path2402" />
    <text
       xml:space="preserve"
       style="font-size:294.28253174px;font-style:normal;font-weight:normal;line-height:125%;fill:#000000;fill-opacity:1;stroke:none;stroke-width:1px;stroke-linecap:butt;stroke-linejoin:miter;stroke-opacity:1;font-family:Bitstream Vera Sans"
       x="1031.1165"
       y="-186.67213"
       id="text3184"
       sodipodi:linespacing="125%"><tspan
         sodipodi:role="line"
         id="tspan3186"
         x="1031.1165"
         y="-186.67213"
         style="font-size:73.57063293px;font-style:normal;font-variant:normal;font-weight:bold;font-stretch:normal;text-align:start;line-height:125%;writing-mode:lr-tb;text-anchor:start;font-family:Arial;-inkscape-font-specification:Arial Bold">R</tspan></text>
    <path
       sodipodi:type="arc"
       style="opacity:1;fill:#000000;fill-opacity:1;stroke:#000000;stroke-width:2;stroke-miterlimit:4;stroke-dasharray:none;stroke-dashoffset:0;stroke-opacity:1"
       id="path3204"
       sodipodi:cx="156.16245"
       sodipodi:cy="135.52051"
       sodipodi:rx="16.162441"
       sodipodi:ry="16.162441"
       d="M 172.32489,135.52051 A 16.162441,16.162441 0 1 1 140,135.52051 A 16.162441,16.162441 0 1 1 172.32489,135.52051 z"
       transform="matrix(0.4446534,0,0,0.4446534,714.65643,-224.59723)" />
    <path
       sodipodi:type="arc"
       style="opacity:1;fill:#000000;fill-opacity:1;stroke:#000000;stroke-width:2;stroke-miterlimit:4;stroke-dasharray:none;stroke-dashoffset:0;stroke-opacity:1"
       id="path3206"
       sodipodi:cx="156.16245"
       sodipodi:cy="135.52051"
       sodipodi:rx="16.162441"
       sodipodi:ry="16.162441"
       d="M 172.32489,135.52051 A 16.162441,16.162441 0 1 1 140,135.52051 A 16.162441,16.162441 0 1 1 172.32489,135.52051 z"
       transform="matrix(0.4446534,0,0,0.4446534,598.00701,-224.59723)" />
    <path
       sodipodi:type="arc"
       style="opacity:1;fill:#000000;fill-opacity:1;stroke:#000000;stroke-width:2;stroke-miterlimit:4;stroke-dasharray:none;stroke-dashoffset:0;stroke-opacity:1"
       id="path3208"
       sodipodi:cx="156.16245"
       sodipodi:cy="135.52051"
       sodipodi:rx="16.162441"
       sodipodi:ry="16.162441"
       d="M 172.32489,135.52051 A 16.162441,16.162441 0 1 1 140,135.52051 A 16.162441,16.162441 0 1 1 172.32489,135.52051 z"
       transform="matrix(0.4446534,0,0,0.4446534,481.35762,-224.59723)" />
    <path
       sodipodi:type="arc"
       style="opacity:1;fill:#000000;fill-opacity:1;stroke:#000000;stroke-width:2;stroke-miterlimit:4;stroke-dasharray:none;stroke-dashoffset:0;stroke-opacity:1"
       id="path3210"
       sodipodi:cx="156.16245"
       sodipodi:cy="135.52051"
       sodipodi:rx="16.162441"
       sodipodi:ry="16.162441"
       d="M 172.32489,135.52051 A 16.162441,16.162441 0 1 1 140,135.52051 A 16.162441,16.162441 0 1 1 172.32489,135.52051 z"
       transform="matrix(0.4446534,0,0,0.4446534,387.09662,-224.59723)" />
    <path
       sodipodi:type="arc"
       style="opacity:1;fill:#000000;fill-opacity:1;stroke:#000000;stroke-width:2;stroke-miterlimit:4;stroke-dasharray:none;stroke-dashoffset:0;stroke-opacity:1"
       id="path3212"
       sodipodi:cx="156.16245"
       sodipodi:cy="135.52051"
       sodipodi:rx="16.162441"
       sodipodi:ry="16.162441"
       d="M 172.32489,135.52051 A 16.162441,16.162441 0 1 1 140,135.52051 A 16.162441,16.162441 0 1 1 172.32489,135.52051 z"
       transform="matrix(0.4446534,0,0,0.4446534,366.53461,-224.59723)" />
    <path
       sodipodi:type="arc"
       style="opacity:1;fill:#000000;fill-opacity:1;stroke:#000000;stroke-width:2;stroke-miterlimit:4;stroke-dasharray:none;stroke-dashoffset:0;stroke-opacity:1"
       id="path3214"
       sodipodi:cx="156.16245"
       sodipodi:cy="135.52051"
       sodipodi:rx="16.162441"
       sodipodi:ry="16.162441"
       d="M 172.32489,135.52051 A 16.162441,16.162441 0 1 1 140,135.52051 A 16.162441,16.162441 0 1 1 172.32489,135.52051 z"
       transform="matrix(0.4446534,0,0,0.4446534,346.51359,-224.59723)" />
    <text
       xml:space="preserve"
       style="font-size:294.28253174px;font-style:normal;font-weight:normal;line-height:125%;fill:#000000;fill-opacity:1;stroke:none;stroke-width:1px;stroke-linecap:butt;stroke-linejoin:miter;stroke-opacity:1;font-family:Bitstream Vera Sans"
       x="427.18665"
       y="-213.90729"
       id="text3222"
       sodipodi:linespacing="125%"><tspan
         sodipodi:role="line"
         id="tspan3224"
         x="427.18665"
         y="-213.90729"
         style="font-size:73.57063293px;font-style:normal;font-variant:normal;font-weight:bold;font-stretch:normal;text-align:start;line-height:125%;writing-mode:lr-tb;text-anchor:start;font-family:Arial;-inkscape-font-specification:Arial Bold">F</tspan></text>
    <path
       sodipodi:type="arc"
       style="opacity:1;fill:#000000;fill-opacity:1;stroke:#000000;stroke-width:2;stroke-miterlimit:4;stroke-dasharray:none;stroke-dashoffset:0;stroke-opacity:1"
       id="path3743"
       sodipodi:cx="156.16245"
       sodipodi:cy="135.52051"
       sodipodi:rx="16.162441"
       sodipodi:ry="16.162441"
       d="M 172.32489,135.52051 A 16.162441,16.162441 0 1 1 140,135.52051 A 16.162441,16.162441 0 1 1 172.32489,135.52051 z"
       transform="matrix(0.4446534,0,0,0.4446534,239.80994,-224.59723)" />
    <path
       sodipodi:type="arc"
       style="opacity:1;fill:#000000;fill-opacity:1;stroke:#000000;stroke-width:2;stroke-miterlimit:4;stroke-dasharray:none;stroke-dashoffset:0;stroke-opacity:1"
       id="path3745"
       sodipodi:cx="156.16245"
       sodipodi:cy="135.52051"
       sodipodi:rx="16.162441"
       sodipodi:ry="16.162441"
       d="M 172.32489,135.52051 A 16.162441,16.162441 0 1 1 140,135.52051 A 16.162441,16.162441 0 1 1 172.32489,135.52051 z"
       transform="matrix(0.4446534,0,0,0.4446534,123.16052,-224.59723)" />
    <path
       sodipodi:type="arc"
       style="opacity:1;fill:#000000;fill-opacity:1;stroke:#000000;stroke-width:2;stroke-miterlimit:4;stroke-dasharray:none;stroke-dashoffset:0;stroke-opacity:1"
       id="path3747"
       sodipodi:cx="156.16245"
       sodipodi:cy="135.52051"
       sodipodi:rx="16.162441"
       sodipodi:ry="16.162441"
       d="M 172.32489,135.52051 A 16.162441,16.162441 0 1 1 140,135.52051 A 16.162441,16.162441 0 1 1 172.32489,135.52051 z"
       transform="matrix(0.4446534,0,0,0.4446534,6.5110895,-224.59723)" />
    <path
       sodipodi:type="arc"
       style="opacity:1;fill:#000000;fill-opacity:1;stroke:#000000;stroke-width:2;stroke-miterlimit:4;stroke-dasharray:none;stroke-dashoffset:0;stroke-opacity:1"
       id="path3749"
       sodipodi:cx="156.16245"
       sodipodi:cy="135.52051"
       sodipodi:rx="16.162441"
       sodipodi:ry="16.162441"
       d="M 172.32489,135.52051 A 16.162441,16.162441 0 1 1 140,135.52051 A 16.162441,16.162441 0 1 1 172.32489,135.52051 z"
       transform="matrix(0.4446534,0,0,0.4446534,293.16176,-224.59723)" />
    <path
       sodipodi:type="arc"
       style="opacity:1;fill:#000000;fill-opacity:1;stroke:#000000;stroke-width:2;stroke-miterlimit:4;stroke-dasharray:none;stroke-dashoffset:0;stroke-opacity:1"
       id="path3751"
       sodipodi:cx="156.16245"
       sodipodi:cy="135.52051"
       sodipodi:rx="16.162441"
       sodipodi:ry="16.162441"
       d="M 172.32489,135.52051 A 16.162441,16.162441 0 1 1 140,135.52051 A 16.162441,16.162441 0 1 1 172.32489,135.52051 z"
       transform="matrix(0.4446534,0,0,0.4446534,434.22713,-224.59723)" />
    <text
       xml:space="preserve"
       style="font-size:40px;font-style:normal;font-weight:normal;fill:#000000;fill-opacity:1;stroke:none;stroke-width:1px;stroke-linecap:butt;stroke-linejoin:miter;stroke-opacity:1;font-family:Bitstream Vera Sans"
       x="193.60883"
       y="22.400684"
       id="text3761"><tspan
         sodipodi:role="line"
         id="tspan3763"
         x="193.60883"
         y="22.400684">A BAD REPRESENTATION</tspan><tspan
         sodipodi:role="line"
         x="193.60883"
         y="72.400681"
         id="tspan3765">NOT CONSISTENTLY SPACED</tspan></text>
  </g>
</svg>
