<?xml version="1.0" encoding="UTF-8" standalone="no"?>
<svg xmlns="http://www.w3.org/2000/svg"
     xmlns:xlink="http://www.w3.org/1999/xlink"
     width="610px" height="376px" viewBox="0 0 610 376"
     style="stroke:none">
<title>Figure n°0</title>
<desc>
Creator: GL2PS 1.3.2, (C) 1999-2006 Christophe Geuzaine (geuz@geuz.org)
For: Scilab
CreationDate: Wed May 25 23:30:56 2011
</desc>
<defs>
</defs>
<polygon fill="#ffffff" points="0,0 610,0 610,376 0,376"/>
<g>
<polygon fill="#ffffff" points="76.25,329 76.25,47 76.25,329"/>
<polygon fill="#ffffff" points="76.25,47 76.25,47 76.25,329"/>
<polygon fill="#ffffff" points="76.25,329 533.75,329 76.25,329"/>
<polygon fill="#ffffff" points="533.75,329 533.75,329 76.25,329"/>
<polygon fill="#ffffff" points="76.25,329 533.75,329 76.25,47"/>
<polygon fill="#ffffff" points="533.75,329 533.75,47 76.25,47"/>
<polyline fill="none" stroke="#000000" stroke-width="0.5" points="76.25,329 76.25,47 76.25,47 533.75,47 533.75,329 533.75,329 76.25,329"/>
<polyline fill="none" stroke="#000000" stroke-width="0.5" points="533.75,47 76.25,47"/>
<polyline fill="none" stroke="#000000" stroke-width="0.5" points="533.75,47 533.75,329"/>
<polyline fill="none" stroke="#000000" stroke-width="0.5" points="533.75,47 533.75,47"/>
<polyline fill="none" stroke="#0000ff" stroke-width="0.5" points="84.4196,329 84.8694,206.372 85.3192,95.9071 85.769,157.898 86.2188,271.648 86.6685,282.424 87.1183,187.098 87.5681,134.582 88.0179,231.832 88.4677,321.922 88.9174,252.386 89.3672,174.433 89.817,202.576 90.2668,282.041 90.7166,301.435 91.1663,231.405 91.6161,180.171 92.0659,251.234 92.5157,318.367 92.9655,276.114 93.4152,215.922 93.865,158.805 94.3148,104.532 94.7646,86.6303 95.2144,148.114 95.6641,206.749 96.1139,262.728 96.5637,316.228 97.0135,290.589 97.4633,241.577 97.913,194.6 98.3628,149.534 98.8126,126.282 99.2624,176.175 99.7122,224.155 100.162,270.33 100.612,314.801 101.062,300.341 101.511,259.01 101.961,219.124 102.411,180.61 102.861,153.869 103.31,195.84 103.76,236.439 104.21,275.732 104.66,313.78 105.11,307.358 105.559,271.627 106.009,236.976 106.459,203.357 106.909,174.172 107.358,210.388 107.808,245.572 108.258,279.766 108.708,313.014 109.158,312.648 109.607,281.182 110.057,250.553 110.507,220.728 110.957,191.677 111.406,163.368 111.856,135.775 112.306,108.871 112.756,82.629 113.206,81.4673 113.655,112.701 114.105,143.193 114.555,172.969 115.005,202.053 115.454,230.471 115.904,258.243 116.354,285.393 116.804,311.94 117.254,320.095 117.703,294.693 118.153,269.837 118.603,245.509 119.053,221.692 119.503,198.37 119.952,175.529 120.402,153.153 120.852,131.228 121.302,122.111 121.751,147.386 122.201,172.166 122.651,196.466 123.101,220.299 123.551,243.678 124,266.618 124.45,289.129 124.9,311.224 125.35,325.086 125.799,303.79 126.249,282.876 126.699,262.336 127.149,242.159 127.599,222.335 128.048,202.855 128.498,183.711 128.948,164.894 129.398,150.373 129.847,171.592 130.297,192.459 130.747,212.981 131.197,233.167 131.647,253.026 132.096,272.564 132.546,291.791 132.996,310.712 133.446,328.664 133.895,310.331 134.345,292.281 134.795,274.509 135.245,257.008 135.695,239.772 136.144,222.794 136.594,206.07 137.044,189.593 137.494,173.358 137.943,189.445 138.393,207.464 138.843,225.224 139.293,242.731 139.743,259.989 140.192,277.005 140.642,293.783 141.092,310.328 141.542,326.645 141.992,315.261 142.441,299.385 142.891,283.725 143.341,268.274 143.791,253.028 144.24,237.985 144.69,223.139 145.14,208.487 145.59,194.025 146.04,179.75 146.489,165.657 146.939,151.744 147.389,138.007 147.839,124.442 148.288,111.047 148.738,97.8177 149.188,84.7517 149.638,71.846 150.088,78.8782 150.537,94.6209 150.987,110.174 151.437,125.541 151.887,140.726 152.336,155.73 152.786,170.559 153.236,185.214 153.686,199.699 154.136,214.017 154.585,228.17 155.035,242.162 155.485,255.995 155.935,269.671 156.384,283.194 156.834,296.566 157.284,309.79 157.734,322.868 158.184,322.198 158.633,309.405 159.083,296.751 159.533,284.234 159.983,271.851 160.432,259.6 160.882,247.48 161.332,235.488 161.782,223.622 162.232,211.88 162.681,200.26 163.131,188.761 163.581,177.38 164.031,166.116 164.481,154.966 164.93,143.93 165.38,133.005 165.83,122.19 166.28,120.021 166.729,132.742 167.179,145.337 167.629,157.808 168.079,170.157 168.529,182.385 168.978,194.495 169.428,206.488 169.878,218.366 170.328,230.13 170.777,241.782 171.227,253.324 171.677,264.757 172.127,276.083 172.577,287.303 173.026,298.419 173.476,309.431 173.926,320.343 174.376,326.846 174.825,316.133 175.275,305.517 175.725,294.998 176.175,284.573 176.625,274.242 177.074,264.003 177.524,253.855 177.974,243.796 178.424,233.826 178.873,223.944 179.323,214.148 179.773,204.436 180.223,194.809 180.673,185.265 181.122,175.803 181.572,166.421 182.022,157.12 182.472,148.62 182.922,159.29 183.371,169.87 183.821,180.361 184.271,190.765 184.721,201.082 185.17,211.315 185.62,221.463 186.07,231.528 186.52,241.511 186.97,251.413 187.419,261.235 187.869,270.977 188.319,280.642 188.769,290.229 189.218,299.74 189.668,309.175 190.118,318.536 190.568,327.823 191.018,320.962 191.467,311.82 191.917,302.749 192.367,293.748 192.817,284.816 193.266,275.953 193.716,267.158 194.166,258.43 194.616,249.768 195.066,241.172 195.515,232.641 195.965,224.174 196.415,215.77 196.865,207.429 197.314,199.15 197.764,190.932 198.214,182.775 198.664,174.678 199.114,178.84 199.563,187.959 200.013,197.012 200.463,206 200.913,214.922 201.362,223.781 201.812,232.576 202.262,241.308 202.712,249.978 203.162,258.586 203.611,267.134 204.061,275.622 204.511,284.05 204.961,292.419 205.41,300.73 205.86,308.983 206.31,317.179 206.76,325.319 207.21,324.598 207.659,316.569 208.109,308.596 208.559,300.676 209.009,292.811 209.459,284.998 209.908,277.238 210.358,269.53 210.808,261.873 211.258,254.268 211.707,246.713 212.157,239.208 212.607,231.753 213.057,224.346 213.507,216.989 213.956,209.679 214.406,202.417 214.856,195.202 215.306,188.033 215.755,180.911 216.205,173.835 216.655,166.804 217.105,159.817 217.555,152.876 218.004,145.978 218.454,139.124 218.904,132.313 219.354,125.546 219.803,118.82 220.253,112.136 220.703,105.495 221.153,98.8939 221.603,92.334 222.052,85.8147 222.502,79.3355 222.952,72.896 223.402,69.6302 223.851,77.5816 224.301,85.4847 224.751,93.34 225.201,101.148 225.651,108.909 226.1,116.623 226.55,124.291 227,131.913 227.45,139.49 227.9,147.022 228.349,154.509 228.799,161.953 229.249,169.352 229.699,176.708 230.148,184.022 230.598,191.292 231.048,198.52 231.498,205.707 231.948,212.852 232.397,219.955 232.847,227.018 233.297,234.041 233.747,241.023 234.196,247.966 234.646,254.869 235.096,261.733 235.546,268.558 235.996,275.345 236.445,282.094 236.895,288.805 237.345,295.478 237.795,302.114 238.244,308.714 238.694,315.277 239.144,321.803 239.594,328.294 240.044,323.251 240.493,316.831 240.943,310.446 241.393,304.097 241.843,297.781 242.292,291.5 242.742,285.253 243.192,279.039 243.642,272.859 244.092,266.712 244.541,260.598 244.991,254.516 245.441,248.467 245.891,242.45 246.34,236.464 246.79,230.51 247.24,224.588 247.69,218.697 248.14,212.836 248.589,207.006 249.039,201.206 249.489,195.437 249.939,189.697 250.389,183.987 250.838,178.307 251.288,172.655 251.738,167.033 252.188,161.439 252.637,155.874 253.087,150.337 253.537,144.829 253.987,139.348 254.437,133.895 254.886,128.469 255.336,123.071 255.786,117.699 256.236,118.975 256.685,125.356 257.135,131.706 257.585,138.024 258.035,144.311 258.485,150.567 258.934,156.792 259.384,162.987 259.834,169.151 260.284,175.285 260.733,181.389 261.183,187.464 261.633,193.509 262.083,199.525 262.533,205.511 262.982,211.469 263.432,217.398 263.882,223.299 264.332,229.172 264.781,235.016 265.231,240.833 265.681,246.622 266.131,252.384 266.581,258.118 267.03,263.826 267.48,269.506 267.93,275.16 268.38,280.788 268.829,286.389 269.279,291.964 269.729,297.513 270.179,303.036 270.629,308.534 271.078,314.007 271.528,319.454 271.978,324.876 272.428,327.727 272.878,322.354 273.327,317.006 273.777,311.682 274.227,306.382 274.677,301.107 275.126,295.855 275.576,290.627 276.026,285.423 276.476,280.242 276.926,275.084 277.375,269.949 277.825,264.837 278.275,259.748 278.725,254.682 279.174,249.638 279.624,244.616 280.074,239.616 280.524,234.639 280.974,229.683 281.423,224.749 281.873,219.837 282.323,214.946 282.773,210.076 283.222,205.228 283.672,200.4 284.122,195.594 284.572,190.808 285.022,186.043 285.471,181.298 285.921,176.574 286.371,171.87 286.821,167.186 287.27,162.522 287.72,157.878 288.17,153.253 288.62,148.648 289.07,153.093 289.519,158.42 289.969,163.725 290.419,169.007 290.869,174.267 291.319,179.506 291.768,184.722 292.218,189.917 292.668,195.09 293.118,200.241 293.567,205.372 294.017,210.481 294.467,215.569 294.917,220.636 295.367,225.682 295.816,230.708 296.266,235.713 296.716,240.697 297.166,245.662 297.615,250.606 298.065,255.53 298.515,260.434 298.965,265.319 299.415,270.183 299.864,275.028 300.314,279.854 300.764,284.66 301.214,289.448 301.663,294.216 302.113,298.965 302.563,303.695 303.013,308.406 303.463,313.099 303.912,317.773 304.362,322.429 304.812,327.066 305.262,326.315 305.711,321.714 306.161,317.13 306.611,312.565 307.061,308.018 307.511,303.488 307.96,298.976 308.41,294.481 308.86,290.004 309.31,285.544 309.759,281.101 310.209,276.676 310.659,272.267 311.109,267.875 311.559,263.5 312.008,259.142 312.458,254.8 312.908,250.474 313.358,246.166 313.807,241.873 314.257,237.597 314.707,233.337 315.157,229.092 315.607,224.864 316.056,220.652 316.506,216.455 316.956,212.274 317.406,208.109 317.856,203.959 318.305,199.825 318.755,195.706 319.205,191.602 319.655,187.514 320.104,183.44 320.554,179.382 321.004,175.338 321.454,173.504 321.904,178.091 322.353,182.662 322.803,187.216 323.253,191.753 323.703,196.274 324.152,200.779 324.602,205.267 325.052,209.739 325.502,214.195 325.952,218.635 326.401,223.058 326.851,227.466 327.301,231.858 327.751,236.235 328.2,240.596 328.65,244.941 329.1,249.271 329.55,253.585 330,257.884 330.449,262.168 330.899,266.437 331.349,270.691 331.799,274.929 332.249,279.153 332.698,283.362 333.148,287.557 333.598,291.736 334.048,295.901 334.497,300.052 334.947,304.188 335.397,308.31 335.847,312.417 336.297,316.511 336.746,320.59 337.196,324.655 337.646,328.706 338.096,325.257 338.545,321.234 338.995,317.224 339.445,313.228 339.895,309.246 340.345,305.277 340.794,301.322 341.244,297.38 341.694,293.452 342.144,289.537 342.593,285.635 343.043,281.746 343.493,277.871 343.943,274.008 344.393,270.159 344.842,266.322 345.292,262.498 345.742,258.687 346.192,254.888 346.641,251.103 347.091,247.329 347.541,243.569 347.991,239.82 348.441,236.084 348.89,232.361 349.34,228.65 349.79,224.951 350.24,221.264 350.689,217.589 351.139,213.926 351.589,210.275 352.039,206.636 352.489,203.009 352.938,199.394 353.388,195.79 353.838,192.198 354.288,188.618 354.738,185.049 355.187,181.492 355.637,177.946 356.087,174.412 356.537,170.889 356.986,167.377 357.436,163.877 357.886,160.387 358.336,156.909 358.786,153.442 359.235,149.986 359.685,146.541 360.135,143.107 360.585,139.683 361.034,136.271 361.484,132.869 361.934,129.478 362.384,126.098 362.834,122.728 363.283,119.369 363.733,116.02 364.183,112.682 364.633,109.354 365.082,106.036 365.532,102.729 365.982,99.4324 366.432,96.1458 366.882,92.8693 367.331,89.6029 367.781,86.3466 368.231,83.1004 368.681,79.8641 369.13,76.6378 369.58,73.4214 370.03,70.2148 370.48,68.9775 370.93,72.9612 371.379,76.9329 371.829,80.8924 372.279,84.8399 372.729,88.7755 373.178,92.6991 373.628,96.6108 374.078,100.511 374.528,104.399 374.978,108.275 375.427,112.14 375.877,115.993 376.327,119.835 376.777,123.665 377.227,127.484 377.676,131.291 378.126,135.087 378.576,138.872 379.026,142.645 379.475,146.407 379.925,150.159 380.375,153.898 380.825,157.627 381.275,161.345 381.724,165.052 382.174,168.748 382.624,172.434 383.074,176.108 383.523,179.772 383.973,183.425 384.423,187.067 384.873,190.699 385.323,194.32 385.772,197.93 386.222,201.531 386.672,205.12 387.122,208.7 387.571,212.269 388.021,215.827 388.471,219.376 388.921,222.914 389.371,226.442 389.82,229.96 390.27,233.468 390.72,236.965 391.17,240.453 391.62,243.931 392.069,247.399 392.519,250.857 392.969,254.305 393.419,257.744 393.868,261.173 394.318,264.592 394.768,268.001 395.218,271.401 395.668,274.791 396.117,278.172 396.567,281.543 397.017,284.905 397.467,288.257 397.916,291.6 398.366,294.933 398.816,298.258 399.266,301.573 399.716,304.879 400.165,308.175 400.615,311.463 401.065,314.741 401.515,318.01 401.964,321.271 402.414,324.522 402.864,327.764 403.314,327.002 403.764,323.778 404.213,320.562 404.663,317.355 405.113,314.157 405.563,310.968 406.012,307.787 406.462,304.615 406.912,301.451 407.362,298.297 407.812,295.15 408.261,292.013 408.711,288.883 409.161,285.763 409.611,282.65 410.06,279.546 410.51,276.451 410.96,273.363 411.41,270.284 411.86,267.214 412.309,264.151 412.759,261.097 413.209,258.051 413.659,255.013 414.108,251.983 414.558,248.961 415.008,245.947 415.458,242.941 415.908,239.943 416.357,236.953 416.807,233.971 417.257,230.996 417.707,228.03 418.156,225.071 418.606,222.121 419.056,219.177 419.506,216.242 419.956,213.314 420.405,210.394 420.855,207.482 421.305,204.577 421.755,201.68 422.205,198.79 422.654,195.908 423.104,193.033 423.554,190.166 424.004,187.306 424.453,184.453 424.903,181.608 425.353,178.77 425.803,175.94 426.253,173.117 426.702,170.301 427.152,167.492 427.602,164.69 428.052,161.896 428.501,159.109 428.951,156.328 429.401,153.555 429.851,150.789 430.301,148.03 430.75,145.278 431.2,142.533 431.65,139.795 432.1,137.064 432.549,134.34 432.999,131.622 433.449,128.912 433.899,126.208 434.349,123.511 434.798,120.821 435.248,118.138 435.698,115.461 436.148,118.451 436.597,121.647 437.047,124.835 437.497,128.015 437.947,131.187 438.397,134.352 438.846,137.508 439.296,140.657 439.746,143.798 440.196,146.931 440.646,150.056 441.095,153.174 441.545,156.284 441.995,159.386 442.445,162.481 442.894,165.568 443.344,168.648 443.794,171.72 444.244,174.784 444.694,177.841 445.143,180.891 445.593,183.933 446.043,186.968 446.493,189.995 446.942,193.015 447.392,196.028 447.842,199.033 448.292,202.032 448.742,205.023 449.191,208.006 449.641,210.983 450.091,213.952 450.541,216.914 450.99,219.869 451.44,222.817 451.89,225.758 452.34,228.692 452.79,231.619 453.239,234.539 453.689,237.452 454.139,240.358 454.589,243.257 455.038,246.15 455.488,249.035 455.938,251.913 456.388,254.785 456.838,257.65 457.287,260.508 457.737,263.36 458.187,266.205 458.637,269.043 459.087,271.874 459.536,274.699 459.986,277.517 460.436,280.328 460.886,283.133 461.335,285.932 461.785,288.723 462.235,291.509 462.685,294.288 463.135,297.06 463.584,299.826 464.034,302.586 464.484,305.339 464.934,308.085 465.383,310.826 465.833,313.56 466.283,316.288 466.733,319.009 467.183,321.724 467.632,324.433 468.082,327.136 468.532,328.167 468.982,325.477 469.431,322.793 469.881,320.114 470.331,317.442 470.781,314.776 471.231,312.117 471.68,309.463 472.13,306.815 472.58,304.173 473.03,301.538 473.479,298.908 473.929,296.284 474.379,293.666 474.829,291.054 475.279,288.448 475.728,285.848 476.178,283.253 476.628,280.665 477.078,278.082 477.527,275.505 477.977,272.934 478.427,270.368 478.877,267.809 479.327,265.255 479.776,262.706 480.226,260.164 480.676,257.627 481.126,255.095 481.576,252.57 482.025,250.049 482.475,247.535 482.925,245.026 483.375,242.522 483.824,240.025 484.274,237.532 484.724,235.045 485.174,232.564 485.624,230.088 486.073,227.617 486.523,225.152 486.973,222.692 487.423,220.238 487.872,217.789 488.322,215.345 488.772,212.907 489.222,210.474 489.672,208.046 490.121,205.624 490.571,203.207 491.021,200.795 491.471,198.388 491.92,195.986 492.37,193.59 492.82,191.199 493.27,188.813 493.72,186.432 494.169,184.056 494.619,181.686 495.069,179.32 495.519,176.96 495.968,174.604 496.418,172.254 496.868,169.909 497.318,167.568 497.768,165.233 498.217,162.903 498.667,160.577 499.117,158.257 499.567,155.942 500.016,153.631 500.466,151.325 500.916,149.024 501.366,149.983 501.816,152.656 502.265,155.324 502.715,157.985 503.165,160.641 503.615,163.292 504.065,165.937 504.514,168.576 504.964,171.21 505.414,173.838 505.864,176.461 506.313,179.078 506.763,181.69 507.213,184.296 507.663,186.897 508.113,189.493 508.562,192.083 509.012,194.667 509.462,197.247 509.912,199.821 510.361,202.389 510.811,204.953 511.261,207.511 511.711,210.064 512.161,212.611 512.61,215.153 513.06,217.69 513.51,220.222 513.96,222.749 514.409,225.27 514.859,227.786 515.309,230.297 515.759,232.803 516.209,235.304 516.658,237.8 517.108,240.29 517.558,242.776 518.008,245.256 518.457,247.732 518.907,250.202 519.357,252.668 519.807,255.128 520.257,257.583 520.706,260.034 521.156,262.479 521.606,264.92 522.056,267.355 522.505,269.786 522.955,272.212 523.405,274.633 523.855,277.049 524.305,279.46 524.754,281.866 525.204,284.268 525.654,286.665 526.104,289.057 526.553,291.444 527.003,293.826 527.453,296.204 527.903,298.577 528.353,300.945 528.802,303.308 529.252,305.667 529.702,308.021 530.152,310.371 530.602,312.716 531.051,315.056 531.501,317.391 531.951,319.722 532.401,322.048 532.85,324.37 533.3,326.687 533.75,329"/>
<polyline fill="none" stroke="#000000" stroke-width="0.5" points="76.25,329 76.25,47"/>
<polyline fill="none" stroke="#000000" stroke-width="0.5" points="76.25,329 69.395,329"/>
<polyline fill="none" stroke="#000000" stroke-width="0.5" points="76.25,282 69.395,282"/>
<polyline fill="none" stroke="#000000" stroke-width="0.5" points="76.25,235 69.395,235"/>
<polyline fill="none" stroke="#000000" stroke-width="0.5" points="76.25,188 69.395,188"/>
<polyline fill="none" stroke="#000000" stroke-width="0.5" points="76.25,141 69.395,141"/>
<polyline fill="none" stroke="#000000" stroke-width="0.5" points="76.25,94 69.395,94"/>
<polyline fill="none" stroke="#000000" stroke-width="0.5" points="76.25,47 69.395,47"/>
<polyline fill="none" stroke="#000000" stroke-width="0.5" points="76.25,305.5 72.137,305.5"/>
<polyline fill="none" stroke="#000000" stroke-width="0.5" points="76.25,258.5 72.137,258.5"/>
<polyline fill="none" stroke="#000000" stroke-width="0.5" points="76.25,211.5 72.137,211.5"/>
<polyline fill="none" stroke="#000000" stroke-width="0.5" points="76.25,164.5 72.137,164.5"/>
<polyline fill="none" stroke="#000000" stroke-width="0.5" points="76.25,117.5 72.137,117.5"/>
<polyline fill="none" stroke="#000000" stroke-width="0.5" points="76.25,70.5 72.137,70.5"/>
<text fill="#000000" style="stroke:none" x="45" y="334" transform="rotate(-0, 45, 334)" font-size="10" font-family="SansSerif" font-style="normal" font-weight="normal">0.00</text>
<text fill="#000000" style="stroke:none" x="46" y="287" transform="rotate(-0, 46, 287)" font-size="10" font-family="SansSerif" font-style="normal" font-weight="normal">0.02</text>
<text fill="#000000" style="stroke:none" x="45" y="240" transform="rotate(-0, 45, 240)" font-size="10" font-family="SansSerif" font-style="normal" font-weight="normal">0.04</text>
<text fill="#000000" style="stroke:none" x="45" y="193" transform="rotate(-0, 45, 193)" font-size="10" font-family="SansSerif" font-style="normal" font-weight="normal">0.06</text>
<text fill="#000000" style="stroke:none" x="45" y="146" transform="rotate(-0, 45, 146)" font-size="10" font-family="SansSerif" font-style="normal" font-weight="normal">0.08</text>
<text fill="#000000" style="stroke:none" x="45" y="99" transform="rotate(-0, 45, 99)" font-size="10" font-family="SansSerif" font-style="normal" font-weight="normal">0.10</text>
<text fill="#000000" style="stroke:none" x="46" y="52" transform="rotate(-0, 46, 52)" font-size="10" font-family="SansSerif" font-style="normal" font-weight="normal">0.12</text>
<polyline fill="none" stroke="#000000" stroke-width="0.5" points="76.25,329 533.75,329"/>
<polyline fill="none" stroke="#000000" stroke-width="0.5" points="76.25,329 76.25,333.23"/>
<polyline fill="none" stroke="#000000" stroke-width="0.5" points="141.607,329 141.607,333.23"/>
<polyline fill="none" stroke="#000000" stroke-width="0.5" points="206.964,329 206.964,333.23"/>
<polyline fill="none" stroke="#000000" stroke-width="0.5" points="272.321,329 272.321,333.23"/>
<polyline fill="none" stroke="#000000" stroke-width="0.5" points="337.679,329 337.679,333.23"/>
<polyline fill="none" stroke="#000000" stroke-width="0.5" points="403.036,329 403.036,333.23"/>
<polyline fill="none" stroke="#000000" stroke-width="0.5" points="468.393,329 468.393,333.23"/>
<polyline fill="none" stroke="#000000" stroke-width="0.5" points="533.75,329 533.75,333.23"/>
<polyline fill="none" stroke="#000000" stroke-width="0.5" points="108.929,329 108.929,331.538"/>
<polyline fill="none" stroke="#000000" stroke-width="0.5" points="174.286,329 174.286,331.538"/>
<polyline fill="none" stroke="#000000" stroke-width="0.5" points="239.643,329 239.643,331.538"/>
<polyline fill="none" stroke="#000000" stroke-width="0.5" points="305,329 305,331.538"/>
<polyline fill="none" stroke="#000000" stroke-width="0.5" points="370.357,329 370.357,331.538"/>
<polyline fill="none" stroke="#000000" stroke-width="0.5" points="435.714,329 435.714,331.538"/>
<polyline fill="none" stroke="#000000" stroke-width="0.5" points="501.071,329 501.071,331.538"/>
<text fill="#000000" style="stroke:none" x="72" y="344" transform="rotate(-0, 72, 344)" font-size="10" font-family="SansSerif" font-style="normal" font-weight="normal">0</text>
<text fill="#000000" style="stroke:none" x="138" y="344" transform="rotate(-0, 138, 344)" font-size="10" font-family="SansSerif" font-style="normal" font-weight="normal">2</text>
<text fill="#000000" style="stroke:none" x="203" y="344" transform="rotate(-0, 203, 344)" font-size="10" font-family="SansSerif" font-style="normal" font-weight="normal">4</text>
<text fill="#000000" style="stroke:none" x="268" y="344" transform="rotate(-0, 268, 344)" font-size="10" font-family="SansSerif" font-style="normal" font-weight="normal">6</text>
<text fill="#000000" style="stroke:none" x="334" y="344" transform="rotate(-0, 334, 344)" font-size="10" font-family="SansSerif" font-style="normal" font-weight="normal">8</text>
<text fill="#000000" style="stroke:none" x="397" y="344" transform="rotate(-0, 397, 344)" font-size="10" font-family="SansSerif" font-style="normal" font-weight="normal">10</text>
<text fill="#000000" style="stroke:none" x="462" y="344" transform="rotate(-0, 462, 344)" font-size="10" font-family="SansSerif" font-style="normal" font-weight="normal">12</text>
<text fill="#000000" style="stroke:none" x="527" y="344" transform="rotate(-0, 527, 344)" font-size="10" font-family="SansSerif" font-style="normal" font-weight="normal">14</text>
<text fill="#000000" style="stroke:none" x="302" y="355" transform="rotate(0, 302, 355)" font-size="10" font-family="SansSerif" font-style="normal" font-weight="normal">x</text>
<text fill="#000000" style="stroke:none" x="36" y="224" transform="rotate(270, 36, 224)" font-size="10" font-family="SansSerif" font-style="normal" font-weight="normal">Relative error</text>
</g>
</svg>
